{
  "data": [
    {
      "type": "BOX",
      "x": 4,
      "y": 3
    },
    {
      "type": "BOX",
      "x": 3,
      "y": 3
    },
    {
      "type": "CROSS",
      "x": 4,
      "y": 3
    },
    {
      "type": "CROSS",
      "x":5,
      "y": 3
    },
    {
      "type": "PLAYER",
      "x":4,
      "y": 4
    },
    {
      "type": "WALL",
      "x":0,
      "y": 0
    },
    {
      "type": "WALL",
      "x":1,
      "y": 0
    },
    {
      "type": "WALL",
      "x":2,
      "y": 0
    },
    {
      "type": "WALL",
      "x":3,
      "y": 0
    },
    {
      "type": "WALL",
      "x":0,
      "y": 1
    },
    {
      "type": "WALL",
      "x":3,
      "y": 1
    },
    {
      "type": "WALL",
      "x":4,
      "y": 1
    },
    {
      "type": "WALL",
      "x":5,
      "y": 1
    },
    {
      "type": "WALL",
      "x":6,
      "y": 1
    },
    {
      "type": "WALL",
      "x":7,
      "y": 1
    },
    {
      "type": "WALL",
      "x":0,
      "y": 2
    },
    {
      "type": "WALL",
      "x":6,
      "y": 2
    },
    {
      "type": "WALL",
      "x":7,
      "y": 2
    },
    {
      "type": "WALL",
      "x":0,
      "y": 3
    },
    {
      "type": "WALL",
      "x":7,
      "y": 3
    },
    {
      "type": "WALL",
      "x":0,
      "y": 4
    },
    {
      "type": "WALL",
      "x":1,
      "y": 4
    },
    {
      "type": "WALL",
      "x":2,
      "y": 4
    },
    {
      "type": "WALL",
      "x":3,
      "y": 4
    },
    {
      "type": "WALL",
      "x":7,
      "y": 4
    },
    {
      "type": "WALL",
      "x":3,
      "y": 5
    },
    {
      "type": "WALL",
      "x":4,
      "y": 5
    },
    {
      "type": "WALL",
      "x":5,
      "y": 5
    },
    {
      "type": "WALL",
      "x":6,
      "y": 5
    },
    {
      "type": "WALL",
      "x":7,
      "y": 5
    }
  ]
}
